﻿^XA
^PON
^PR5
^CI27
^PW800
^LL1026
^LS0
^FT184,560^ATR,40,35^FH\^FDLOT.-NO.: {ALot}^FS
^BY3,2.3^FT96,560^B3R,N,64,Y,N^FD{ALot}^FS
^FT184,48^ATR,40,35^FH\^FDGEN.NO.: {KGNr}^FS
^BY3,2.3^FT96,48^B3R,N,64,Y,N^FD{KGNr}^FS
^FT376,48^ATR,40,35^FH\^FDART.-NO.: {KNr}^FS
^BY3,2.3^FT288,48^B3R,N,64,Y,N^FD{KNr}^FS

^FT480,48^ATR^FD{KName}^FS
^FT736,48^ATR^FDAuftrags No.:^FS
^FT736,272^ATR^FD{ANr}^FS
^FT680,48^ATR^FDAuftrags Art:^FS
^FT680,272^ATR^FD{ABem}^FS
^FT624,48^ATR^FDVerwieger:^FS
^FT624,272^ATR^FD{BTag}^FS
^FT736,520^ATR^FDEtikette:^FS
^FT736,704^ATR^FD{ENr}^FS
^FT680,520^ATR^FDBesteller:^FS
^FT680,704^ATR^FD{ABest}^FS
^FT624,520^ATR^FDDatum:^FS
^FT624,704^ATR^FD{Datum}^FS
^FT420,608^ACR^FDBRUTTO KG^FS
^FT348,608^ACR^FDNETTO  KG^FS
^FT276,608^ACR^FDTARA   KG^FS
^FT420,784^ATR^FD{GROSS}^FS
^FT348,784^ATR^FD{NET}^FS
^FT276,784^ATR^FD{TARE}^FS
^PQ1,0,1,Y^XZ

